 ************ Welcome to the Potential Energy Calculator ************
 
 This program calculates the potential energy of two point charges or
 atoms for a distance of 0.8A to 20.0A through 200 steps.
 
 Please consider that the formulas for doing so are the following:
 
 * Total potential energy:
 
   V   (r)  =  V  (r) + V  (r)
    tot         sr       lr
 
 * Short range potential:
 
                                     2
                 /     /-B /r - r \\\
                 |     \   \     0//|
   V  (r) = D  . \1 - e             /  - D
    sr       e                            e
 
 * Long range potential:
 
              / A     D \
   V  (r') = -|--- - ---|
    lr        |  6     8|
              \r'    r' /
 
   While considering that:
                 /-/r - r \\
                 \ \     0//
   r' = r + C . e
 
 The program will create an output file with the name output.csv
 which you may read using Microsoft Excel, LibreOffice Calc or
 similar spreadsheet software.
 
 --------------------------------------------------------------------
 Reading the parameters from the file: params.dat                                                                                                                                                                                                                                                     
 De =    8.67850018    
 A  =    9.63739967    
 B  =    3.42729998    
 C  =    1.94159997    
 D  =    208.482895    
 r0 =    8.69999975E-02
 --------------------------------------------------------------------
 The potential energy is being calculated ...
 The potential energy has been calculated successfully!
 Writing the results to the output.csv file ...
 File created successfully!
 
 ********************************************************************
 The program has now finished.
 Have a nice day!
